PracD4 – Peer-Reviewed Hand-in
…
install.packages("nycflights13")

package 'nycflights13' successfully unpacked and MD5 sums checked

The downloaded binary packages are in
    C:\Users\fabio\AppData\Local\Temp\RtmpIBfaxc\downloaded_packages

library(tidyverse)
library(nycflights13)

flights_tib <- as_tibble(flights)
flights_tib

# A tibble: 336,776 × 19
    year month   day dep_time sched_dep_time dep_delay arr_time sched_arr_time
   <int> <int> <int>    <int>          <int>     <dbl>    <int>          <int>
 1  2013     1     1      517            515         2      830            819
 2  2013     1     1      533            529         4      850            830
 3  2013     1     1      542            540         2      923            850
 4  2013     1     1      544            545        -1     1004           1022
 5  2013     1     1      554            600        -6      812            837
 6  2013     1     1      554            558        -4      740            728
 7  2013     1     1      555            600        -5      913            854
 8  2013     1     1      557            600        -3      709            723
 9  2013     1     1      557            600        -3      838            846
10  2013     1     1      558            600        -2      753            745
# ℹ 336,766 more rows
# ℹ 11 more variables: arr_delay <dbl>, carrier <chr>, flight <int>,
#   tailnum <chr>, origin <chr>, dest <chr>, air_time <dbl>, distance <dbl>,
#   hour <dbl>, minute <dbl>, time_hour <dttm>
…
From the code, we can see that the proportion of flights which recovered is 0.1082708, i.e. approximately 10.83% of flights.

Airline Performance

All the sub-questions will consist of us performing analysis on routes that have multiple carriers flying them, so we will create a data frame consisting of this data.

multi_carrier_routes <- flights |> 
  group_by(origin, dest) |> 
  filter(n_distinct(carrier) > 1) |> 
  ungroup()
multi_carrier_routes

# A tibble: 276,735 × 19
    year month   day dep_time sched_dep_time dep_delay arr_time sched_arr_time
   <int> <int> <int>    <int>          <int>     <dbl>    <int>          <int>
 1  2013     1     1      542            540         2      923            850
 2  2013     1     1      554            600        -6      812            837
 3  2013     1     1      554            558        -4      740            728
 4  2013     1     1      555            600        -5      913            854
 5  2013     1     1      557            600        -3      709            723
 6  2013     1     1      557            600        -3      838            846
 7  2013     1     1      558            600        -2      753            745
 8  2013     1     1      558            600        -2      853            856
 9  2013     1     1      558            600        -2      924            917
10  2013     1     1      558            600        -2      923            937
# ℹ 276,725 more rows
# ℹ 11 more variables: arr_delay <dbl>, carrier <chr>, flight <int>,
#   tailnum <chr>, origin <chr>, dest <chr>, air_time <dbl>, distance <dbl>,
#   hour <dbl>, minute <dbl>, time_hour <dttm>

Routes with More than 1 Carrier/Airline

routes <- multi_carrier_routes |> 
  select(origin, dest) |> 
  distinct(origin, dest)
routes

# A tibble: 128 × 2
   origin dest 
   <chr>  <chr>
 1 JFK    MIA  
 2 LGA    ATL  
 3 EWR    ORD  
 4 EWR    FLL  
 5 LGA    IAD  
 6 JFK    MCO  
 7 LGA    ORD  
 8 JFK    TPA  
 9 JFK    LAX  
10 EWR    SFO  
# ℹ 118 more rows

Average Arrival Delay of Airlines on These Routes

#The more comprehensive data frame
arr_delay_carrier <- multi_carrier_routes |>
  group_by(origin, dest, carrier) |>
  summarize(
    avg_arr_delay = mean(arr_delay, na.rm = TRUE),
    .groups = "drop") |> 
  left_join(airlines, by = "carrier")
arr_delay_carrier

# A tibble: 343 × 5
   origin dest  carrier avg_arr_delay name                    
   <chr>  <chr> <chr>           <dbl> <chr>                   
 1 EWR    ATL   9E              -6.25 Endeavor Air Inc.       
 2 EWR    ATL   DL              10.0  Delta Air Lines Inc.    
 3 EWR    ATL   EV              19.5  ExpressJet Airlines Inc.
 4 EWR    ATL   UA              10.5  United Air Lines Inc.   
 5 EWR    AUS   UA               4.28 United Air Lines Inc.   
 6 EWR    AUS   WN             -11.2  Southwest Airlines Co.  
 7 EWR    BDL   EV               6.78 ExpressJet Airlines Inc.
 8 EWR    BDL   UA              22.6  United Air Lines Inc.   
 9 EWR    BNA   EV              17.7  ExpressJet Airlines Inc.
10 EWR    BNA   WN              -2.13 Southwest Airlines Co.  
# ℹ 333 more rows

# The more selective data frame
airline_names <- arr_delay_carrier |> 
  select(name, avg_arr_delay, origin, dest) 
airline_names

# A tibble: 343 × 4
   name                     avg_arr_delay origin dest 
   <chr>                            <dbl> <chr>  <chr>
 1 Endeavor Air Inc.                -6.25 EWR    ATL  
 2 Delta Air Lines Inc.             10.0  EWR    ATL  
 3 ExpressJet Airlines Inc.         19.5  EWR    ATL  
 4 United Air Lines Inc.            10.5  EWR    ATL  
 5 United Air Lines Inc.             4.28 EWR    AUS  
 6 Southwest Airlines Co.          -11.2  EWR    AUS  
 7 ExpressJet Airlines Inc.          6.78 EWR    BDL  
 8 United Air Lines Inc.            22.6  EWR    BDL  
 9 ExpressJet Airlines Inc.         17.7  EWR    BNA  
10 Southwest Airlines Co.           -2.13 EWR    BNA  
# ℹ 333 more rows
…
Best-Worst Airlines

#This will show you more data
best_worst_delay <- arr_delay_carrier |>
  group_by(origin, dest) |> 
  summarize(
    best_delay = min(avg_arr_delay, na.rm = TRUE),
    worst_delay = max(avg_arr_delay, na.rm = TRUE),
    best_airline = name[which.min(avg_arr_delay)],
    worst_airline = name[which.max(avg_arr_delay)],
    delay_diff = worst_delay - best_delay,
    .groups = "drop")
best_worst_delay

# A tibble: 128 × 7
   origin dest  best_delay worst_delay best_airline     worst_airline delay_diff
   <chr>  <chr>      <dbl>       <dbl> <chr>            <chr>              <dbl>
 1 EWR    ATL       -6.25        19.5  Endeavor Air In… ExpressJet A…      25.8 
 2 EWR    AUS      -11.2          4.28 Southwest Airli… United Air L…      15.5 
 3 EWR    BDL        6.78        22.6  ExpressJet Airl… United Air L…      15.8 
 4 EWR    BNA       -2.13        17.7  Southwest Airli… ExpressJet A…      19.8 
 5 EWR    BOS       -4.01         6.87 ExpressJet Airl… JetBlue Airw…      10.9 
 6 EWR    BWI        5.95        20.1  Southwest Airli… ExpressJet A…      14.1 
 7 EWR    CHS      -14           16.2  United Air Line… ExpressJet A…      30.2 
 8 EWR    CLE       -3.71         5.97 ExpressJet Airl… United Air L…       9.68
 9 EWR    CLT        0.920       20.5  US Airways Inc.  ExpressJet A…      19.6 
10 EWR    CVG        1.40        21.2  Endeavor Air In… ExpressJet A…      19.8 
# ℹ 118 more rows

#This shows you the more specific data
best_worst_airline <- best_worst_delay |> 
  select(origin, dest, best_airline, worst_airline)
best_worst_airline

# A tibble: 128 × 4
   origin dest  best_airline             worst_airline           
   <chr>  <chr> <chr>                    <chr>                   
 1 EWR    ATL   Endeavor Air Inc.        ExpressJet Airlines Inc.
 2 EWR    AUS   Southwest Airlines Co.   United Air Lines Inc.   
 3 EWR    BDL   ExpressJet Airlines Inc. United Air Lines Inc.   
 4 EWR    BNA   Southwest Airlines Co.   ExpressJet Airlines Inc.
 5 EWR    BOS   ExpressJet Airlines Inc. JetBlue Airways         
 6 EWR    BWI   Southwest Airlines Co.   ExpressJet Airlines Inc.
 7 EWR    CHS   United Air Lines Inc.    ExpressJet Airlines Inc.
 8 EWR    CLE   ExpressJet Airlines Inc. United Air Lines Inc.   
 9 EWR    CLT   US Airways Inc.          ExpressJet Airlines Inc.
10 EWR    CVG   Endeavor Air Inc.        ExpressJet Airlines Inc.
# ℹ 118 more rows
…
